…
``` r
logistic_workflow_2 %>%
 pull_workflow_fit() %>%
  tidy() %>%
  mutate_if(is.numeric,round,2)
```

    ## Warning: `pull_workflow_fit()` was deprecated in workflows 0.2.3.
    ## ℹ Please use `extract_fit_parsnip()` instead.

    ## # A tibble: 111 × 5
    ##    term                            estimate std.error statistic p.value
    ##    <chr>                              <dbl>     <dbl>     <dbl>   <dbl>
    ##  1 (Intercept)                         1.28   1079.        0          1
    ##  2 total_billed                       -1.45      0.03    -52.8        0
    ##  3 number_phones                      -0.85      0.02    -35.0        0
    ##  4 streaming_minutes                   0.48      0.02     20.9        0
    ##  5 prev_balance                       -0.47      0.03    -17.4        0
    ##  6 monthly_minutes                     0.54      0.03     19.5        0
    ##  7 customer_service_calls              0.12      0.02      5.07       0
    ##  8 late_payments                      -0.39      0.03    -14.2        0
    ##  9 payment_method_Credit.Card         -5.69      0.21    -27.7        0
    ## 10 payment_method_Electronic.Check    -3.18      0.15    -21.1        0
    ## # … with 101 more rows
    ## # ℹ Use `print(n = ...)` to see more rows
…
    ## # A tibble: 2 × 4
    ##   .estimator part     accuracy roc_auc
    ##   <chr>      <chr>       <dbl>   <dbl>
    ## 1 binary     training    0.964   0.914
    ## 2 binary     testing     0.965   0.906

``` r
logistic_workflow_3 %>%
 pull_workflow_fit() %>%
  tidy() %>%
  mutate_if(is.numeric,round,2)
```

    ## # A tibble: 58 × 5
    ##    term                        estimate std.error statistic p.value
    ##    <chr>                          <dbl>     <dbl>     <dbl>   <dbl>
    ##  1 (Intercept)                     2.22    616.        0       1   
    ##  2 monthly_minutes                 0.63      0.03     23.6     0   
    ##  3 customer_service_calls          0.07      0.02      2.9     0   
    ##  4 streaming_minutes               0.51      0.02     23.6     0   
    ##  5 total_billed                   -1.52      0.03    -57.8     0   
    ##  6 prev_balance                   -0.36      0.02    -14.3     0   
    ##  7 late_payments                  -0.46      0.03    -17.5     0   
    ##  8 number_phones                  -0.81      0.02    -34.4     0   
    ##  9 phone_model_Google.Pixel.4a    12.8     616.        0.02    0.98
    ## 10 phone_model_iPhone.11          14.0     616.        0.02    0.98
    ## # … with 48 more rows
    ## # ℹ Use `print(n = ...)` to see more rows
…
## Bake

``` r
knn_bake<-bake(knn_recipe %>% prep(), train, composition = "tibble")
knn_bake
```

    ## # A tibble: 72,720 × 58
    ##    month…¹ custo…² strea…³ total…⁴ prev_…⁵ late_…⁶ numbe…⁷ churn phone…⁸ phone…⁹
    ##      <dbl>   <dbl>   <dbl>   <dbl>   <dbl>   <dbl>   <dbl> <fct>   <int>   <int>
    ##  1    3.55    1.51    2.42    5.18    2.10    3.02    2.74 0           0       0
    ##  2    5.14    3.02    2.92    6.93    4.19    4.52    6.40 0           0       0
    ##  3    3.47    3.02    3.45    7.74    3.02    2.26    4.57 0           0       0
    ##  4    3.37    1.51    3.15    7.12    4.70    3.02    4.57 0           0       0
    ##  5    3.05    3.02    2.91    6.36    3.19    2.26    4.57 0           0       0
    ##  6    3.09    1.51    5.87    6.64    4.19    3.77    5.49 0           0       0
    ##  7    3.59    3.02    6.15    7.52    2.93    4.52    4.57 0           0       0
    ##  8    5.11    3.02    3.11    7.60    4.61    3.77    5.49 0           0       0
    ##  9    5.19    1.51    4.31    7.66    3.27    3.77    4.57 0           0       0
    ## 10    6.58    3.02    5.20    7.77    3.27    5.28    2.74 0           0       0
    ## # … with 72,710 more rows, 48 more variables:
    ## #   phone_model_iPhone.11.Pro...Pro.Max <int>,
    ## #   phone_model_iPhone.SE.2020 <int>, phone_model_iPhone.XR <int>,
    ## #   phone_model_iPhone.XS <int>, phone_model_Moto.G8.Power <int>,
    ## #   phone_model_OnePlus.7.Pro <int>, phone_model_OnePlus.8.Pro <int>,
    ## #   phone_model_Samsung.Galaxy.Note.20.Ultra <int>,
    ## #   phone_model_Samsung.Galaxy.S10...S10.Plus <int>, …
    ## # ℹ Use `print(n = ...)` to see more rows, and `colnames()` to see all variable names
…
    ## Loading required package: Matrix

    ## 
    ## Attaching package: 'Matrix'

    ## The following objects are masked from 'package:tidyr':
    ## 
    ##     expand, pack, unpack

    ## Loaded glmnet 4.1-4

    ## # A tibble: 111 × 3
    ##    term                            estimate penalty
    ##    <chr>                              <dbl>   <dbl>
    ##  1 (Intercept)                         4.5     0.01
    ##  2 total_billed                       -1.02    0.01
    ##  3 number_phones                      -0.48    0.01
    ##  4 streaming_minutes                   0.3     0.01
    ##  5 prev_balance                       -0.02    0.01
    ##  6 monthly_minutes                     0.25    0.01
    ##  7 customer_service_calls              0       0.01
    ##  8 late_payments                       0       0.01
    ##  9 payment_method_Credit.Card         -0.04    0.01
    ## 10 payment_method_Electronic.Check     0       0.01
    ## # … with 101 more rows
    ## # ℹ Use `print(n = ...)` to see more rows
…
