…
``` r
fraud_email <-fraud%>%
  count(event_label,email_domain)%>%
  pivot_wider(id_cols= email_domain, names_from= event_label, values_from=n, values_fill=0)%>%
  mutate(total=fraud+legit,
         pct_email=fraud/total) %>%
  filter(total>5 & pct_email>0.1)%>%
  arrange(desc(pct_email))

fraud_email
```

    ## # A tibble: 808 × 5
    ##    email_domain         fraud legit total pct_email
    ##    <chr>                <int> <int> <int>     <dbl>
    ##  1 davis.com                4     2     6     0.667
    ##  2 baker-clark.org          3     3     6     0.5  
    ##  3 cochran.com              3     3     6     0.5  
    ##  4 sutton.org               3     3     6     0.5  
    ##  5 glass.com                5     6    11     0.455
    ##  6 crawford-jenkins.org     3     4     7     0.429
    ##  7 marshall.net             3     4     7     0.429
    ##  8 keller-woodward.com      5     7    12     0.417
    ##  9 barron.com               3     6     9     0.333
    ## 10 baxter.net               2     4     6     0.333
    ## # … with 798 more rows
    ## # ℹ Use `print(n = ...)` to see more rows
…
``` r
fraud_billing_postal <-fraud_prep%>%
  count(event_label,billing_postal)%>%
  pivot_wider(id_cols= billing_postal, names_from= event_label, values_from=n, values_fill=0)%>%
  mutate(total=fraud+legit,
         pct_billpos=fraud/total) %>%
  filter(total>5 & pct_billpos>0.1)%>%
  arrange(desc(pct_billpos))

fraud_billing_postal
```

    ## # A tibble: 1,481 × 5
    ##    billing_postal fraud legit total pct_billpos
    ##    <fct>          <int> <int> <int>       <dbl>
    ##  1 74435              3     3     6       0.5  
    ##  2 3524               5     8    13       0.385
    ##  3 32676              5     8    13       0.385
    ##  4 61756              3     5     8       0.375
    ##  5 83729              3     5     8       0.375
    ##  6 92094              3     5     8       0.375
    ##  7 38992              4     7    11       0.364
    ##  8 2081               2     4     6       0.333
    ##  9 8454               2     4     6       0.333
    ## 10 13586              2     4     6       0.333
    ## # … with 1,471 more rows
    ## # ℹ Use `print(n = ...)` to see more rows
…
bake(model_recipe %>% prep(), train %>% sample_n(1000))
```

    ## # A tibble: 1,000 × 167
    ##    account_age…¹ trans…² trans…³ histo…⁴ event…⁵ signa…⁶ signa…⁷ signa…⁸ signa…⁹
    ##            <dbl>   <dbl>   <dbl>   <dbl> <fct>     <int>   <int>   <int>   <int>
    ##  1          1741    2256      48    3373 legit         0       0       0       0
    ##  2          4657    2518      59    3992 legit         0       0       0       0
    ##  3          5793    2151      47    5639 legit         0       0       0       0
    ##  4          3716    2756      46    2493 legit         0       0       0       0
    ##  5          3955    3127      42    4593 legit         0       0       0       0
    ##  6          5601    2945      66    5262 legit         0       0       0       0
    ##  7          4672    2112      60    2967 legit         0       0       0       1
    ##  8          3786    3534      51    5163 legit         0       0       0       0
    ##  9          4753    2614      51    3906 legit         0       0       0       0
    ## 10          3333    1783      47    4128 legit         0       0       0       1
    ## # … with 990 more rows, 158 more variables: signature_image_E <int>,
    ## #   signature_image_F <int>, signature_image_G <int>, signature_image_H <int>,
    ## #   signature_image_I <int>, signature_image_J <int>, signature_image_K <int>,
    ## #   signature_image_L <int>, signature_image_M <int>, signature_image_N <int>,
    ## #   signature_image_O <int>, signature_image_P <int>, signature_image_Q <int>,
    ## #   signature_image_R <int>, signature_image_S <int>, signature_image_T <int>,
    ## #   signature_image_U <int>, signature_image_V <int>, …
    ## # ℹ Use `print(n = ...)` to see more rows, and `colnames()` to see all variable names
…
    ## Joining, by = "email_domain"
    ## Joining, by = "billing_postal"

``` r
train_w_feature
```

    ## # A tibble: 87,500 × 30
    ##    event_id account_ag…¹ trans…² trans…³ histo…⁴ ip_ad…⁵ user_…⁶ email…⁷ phone…⁸
    ##       <dbl>        <dbl>   <dbl>   <dbl>   <dbl> <fct>   <fct>   <chr>   <fct>  
    ##  1  2471480         5280    2033      53    5019 94.32.… Mozill… johnso… +1-460…
    ##  2  1516220         4120    2501      47    3178 111.24… Opera/… smith-… 635-95…
    ##  3   214040         4796    1955      50    4073 25.195… Mozill… robert… +1-716…
    ##  4  2968260         3151    1998      57    6088 195.23… Mozill… bailey… (794)2…
    ##  5  1040220         6061    2811      62    6741 201.21… Mozill… nash-c… (829)2…
    ##  6  1275480         6368    2508      62    6148 190.12… Mozill… andrew… (059)7…
    ##  7   736100         3409    2161      58    2542 206.77… Opera/… jackso… (598)4…
    ##  8   570220         4383    2649      61    5821 139.59… Mozill… oconno… 033-06…
    ##  9  1688480         6073    2637      51    5838 125.15… Mozill… fernan… 689.79…
    ## 10   819580         5570    2874      48    7331 188.65… Mozill… meza.n… 431-54…
    ## # … with 87,490 more rows, 21 more variables: billing_city <fct>,
    ## #   billing_postal <fct>, billing_state <fct>, card_bin <fct>, currency <fct>,
    ## #   cvv <fct>, signature_image <fct>, transaction_type <fct>,
    ## #   transaction_env <fct>, event_timestamp <dttm>, applicant_name <fct>,
    ## #   billing_address <fct>, merchant_id <fct>, locale <fct>,
    ## #   tranaction_initiate <fct>, days_since_last_logon <dbl>,
    ## #   inital_amount <dbl>, event_label <fct>, pct_email <dbl>, pct <dbl>, …
    ## # ℹ Use `print(n = ...)` to see more rows, and `colnames()` to see all variable names
…
    ## Joining, by = "email_domain"
    ## Joining, by = "billing_postal"

``` r
test_w_feature
```

    ## # A tibble: 37,500 × 30
    ##    event_id account_ag…¹ trans…² trans…³ histo…⁴ ip_ad…⁵ user_…⁶ email…⁷ phone…⁸
    ##       <dbl>        <dbl>   <dbl>   <dbl>   <dbl> <fct>   <fct>   <chr>   <fct>  
    ##  1   294600         6570    2887      56    5602 109.15… Mozill… walsh-… 366.18…
    ##  2   694280         5126    2368      76    5444 194.13… Opera/… smith-… 001-64…
    ##  3   127560         4793    2721      48    6098 35.187… Mozill… gutier… 001-44…
    ##  4   586160         6418    3334      65    5358 7.88.2… Mozill… dunlap… 188.62…
    ##  5   946720         4195    2320      62    4281 37.8.3… Mozill… parks.… 001-05…
    ##  6  2991660         3705    2020      61    2873 215.55… Mozill… alvara… (525)4…
    ##  7   430660         3335    2281      62    3258 46.16.… Mozill… estrad… 252954…
    ##  8  2471680         6298    2688      51    4176 110.21… Mozill… perez-… 527414…
    ##  9     4620         4511    3504      39    7830 96.31.… Mozill… zimmer… 001-50…
    ## 10   346640         6037    2395      39    5283 205.10… Opera/… oneill… (336)9…
    ## # … with 37,490 more rows, 21 more variables: billing_city <fct>,
    ## #   billing_postal <fct>, billing_state <fct>, card_bin <fct>, currency <fct>,
    ## #   cvv <fct>, signature_image <fct>, transaction_type <fct>,
    ## #   transaction_env <fct>, event_timestamp <dttm>, applicant_name <fct>,
    ## #   billing_address <fct>, merchant_id <fct>, locale <fct>,
    ## #   tranaction_initiate <fct>, days_since_last_logon <dbl>,
    ## #   inital_amount <dbl>, event_label <fct>, pct_email <dbl>, pct <dbl>, …
    ## # ℹ Use `print(n = ...)` to see more rows, and `colnames()` to see all variable names
…
    ## Joining, by = "email_domain"
    ## Joining, by = "billing_postal"

``` r
kaggle_w_feature
```

    ## # A tibble: 25,000 × 29
    ##    event_id account_ag…¹ trans…² trans…³ histo…⁴ ip_ad…⁵ user_…⁶ email…⁷ phone…⁸
    ##       <dbl>        <dbl>   <dbl>   <dbl>   <dbl> <fct>   <fct>   <chr>   <fct>  
    ##  1   109420         4462    3648      54    6325 197.10… Opera/… perez-… +1-776…
    ##  2  1049060         3360    2180      54    4030 178.16… Opera/… morris… 001-42…
    ##  3  2805320         4725    2063      60    4372 163.48… Mozill… campos… 073.15…
    ##  4   450840         5336    2319      72    4385 55.233… Mozill… hanna-… 835-29…
    ##  5   423160         6115    3413      61    5942 119.22… Opera/… gregor… 424.20…
    ##  6   278980         3664    2241      52    3897 161.16… Mozill… carter… 001-68…
    ##  7  2282820         3569    3064      57    4892 15.142… Mozill… carter… (732)2…
    ##  8  1192680         4327    1168      57    3426 3.73.2… Mozill… may-hi… 396.78…
    ##  9  1319780         2797    1721      51    6066 204.15… Mozill… morgan… (985)8…
    ## 10  1373260         4615    2892      53    6418 171.15… Mozill… evans-… 001-44…
    ## # … with 24,990 more rows, 20 more variables: billing_city <fct>,
    ## #   billing_postal <fct>, billing_state <fct>, card_bin <fct>, currency <fct>,
    ## #   cvv <fct>, signature_image <fct>, transaction_type <fct>,
    ## #   transaction_env <fct>, event_timestamp <fct>, applicant_name <fct>,
    ## #   billing_address <fct>, merchant_id <fct>, locale <fct>,
    ## #   tranaction_initiate <fct>, days_since_last_logon <dbl>,
    ## #   inital_amount <dbl>, pct_email <dbl>, pct <dbl>, pct_billpos <dbl>, and …
    ## # ℹ Use `print(n = ...)` to see more rows, and `colnames()` to see all variable names
…
bake(model_recipe2 %>% prep(), train_w_feature %>% sample_n(1000))
```

    ## # A tibble: 1,000 × 26
    ##    account_age…¹ trans…² trans…³ histo…⁴ pct_e…⁵ pct_b…⁶ event…⁷ curre…⁸ curre…⁹
    ##            <dbl>   <dbl>   <dbl>   <dbl>   <dbl>   <dbl> <fct>     <int>   <int>
    ##  1          4103    2872      48    4633   0.129   0     legit         1       0
    ##  2          3308    2215      54    2901   0.129   0     legit         1       0
    ##  3          4822    2796      63    5691   0.129   0     legit         0       1
    ##  4          3950    1260      48    4566   0.107   0     legit         1       0
    ##  5          5627    4169      57    6787   0.129   0     fraud         0       1
    ##  6          6682    2393      63    5577   0.129   0     legit         0       1
    ##  7          3431    2062      35    3167   0.118   0.176 legit         1       0
    ##  8          2909    1726      66    4275   0.129   0     legit         0       0
    ##  9          5338    2389      63    4789   0.129   0     legit         0       1
    ## 10          5932    3515      55    5702   0.129   0     legit         1       0
    ## # … with 990 more rows, 17 more variables: currency_other <int>,
    ## #   transaction_type_D <int>, transaction_type_F <int>,
    ## #   transaction_type_G <int>, transaction_type_I <int>,
    ## #   transaction_type_other <int>, cvv_D <int>, cvv_G <int>, cvv_W <int>,
    ## #   cvv_X <int>, cvv_other <int>, transaction_env_D <int>,
    ## #   transaction_env_G <int>, transaction_env_I <int>, transaction_env_W <int>,
    ## #   transaction_env_X <int>, transaction_env_other <int>, and abbreviated …
    ## # ℹ Use `print(n = ...)` to see more rows, and `colnames()` to see all variable names
…
# which emails are important

``` r
email_recipe <- recipe(event_label ~ email_domain,data = train) %>% 
  #step_impute_median(all_numeric_predictors()) %>% # replace numeric missing values 
  #step_novel(all_nominal_predictors()) %>%         # handle new levels 
  themis::step_downsample(event_label, under_ratio = 3) %>% 
  step_unknown(all_nominal_predictors()) %>%       # replace category missing values 
  step_other(all_nominal_predictors(),threshold = 10) %>%  # pool rarely occuring levels 
  step_dummy(all_nominal_predictors(), one_hot = TRUE) # onehot encode 

bake(email_recipe %>% prep(), train %>% sample_n(1000))
```

    ## # A tibble: 1,000 × 156
    ##    event_label email_d…¹ email…² email…³ email…⁴ email…⁵ email…⁶ email…⁷ email…⁸
    ##    <fct>           <int>   <int>   <int>   <int>   <int>   <int>   <int>   <int>
    ##  1 legit               0       0       0       0       0       0       0       0
    ##  2 fraud               0       0       0       0       0       0       0       0
    ##  3 legit               0       0       0       0       0       0       0       0
    ##  4 legit               0       0       0       0       0       0       0       0
    ##  5 legit               0       0       0       0       0       0       0       0
    ##  6 legit               0       0       0       0       0       0       0       0
    ##  7 legit               0       0       0       0       0       0       0       0
    ##  8 fraud               0       0       0       0       0       0       0       0
    ##  9 legit               0       0       0       0       0       0       0       0
    ## 10 legit               0       0       0       0       0       0       0       0
    ## # … with 990 more rows, 147 more variables: email_domain_barrett.net <int>,
    ## #   email_domain_bauer.arnold.com <int>, email_domain_beck.jackson.com <int>,
    ## #   email_domain_beck.biz <int>, email_domain_bender.info <int>,
    ## #   email_domain_benitez.bailey.info <int>,
    ## #   email_domain_benjamin.watson.org <int>, email_domain_black.com <int>,
    ## #   email_domain_boone.gonzales.com <int>, email_domain_booth.info <int>,
    ## #   email_domain_bradford.rivera.biz <int>, …
    ## # ℹ Use `print(n = ...)` to see more rows, and `colnames()` to see all variable names
…
# which billing postals are important

``` r
billingpostal_recipe <- recipe(event_label ~ billing_postal ,data = train) %>% 
  #step_impute_median(all_numeric_predictors()) %>% # replace numeric missing values 
  #step_novel(all_nominal_predictors()) %>%         # handle new levels 
  themis::step_downsample(event_label, under_ratio = 5) %>% 
  step_unknown(all_nominal_predictors()) %>%       # replace category missing values 
  step_other(all_nominal_predictors(),threshold = 10) %>%  # pool rarely occuring levels 
  step_dummy(all_nominal_predictors(), one_hot = TRUE) # onehot encode 

bake(billingpostal_recipe %>% prep(), train %>% sample_n(1000))
```

    ## # A tibble: 1,000 × 90
    ##    event_label billing…¹ billi…² billi…³ billi…⁴ billi…⁵ billi…⁶ billi…⁷ billi…⁸
    ##    <fct>           <int>   <int>   <int>   <int>   <int>   <int>   <int>   <int>
    ##  1 legit               0       0       0       0       0       0       0       0
    ##  2 legit               0       0       0       0       0       0       0       0
    ##  3 legit               0       0       0       0       0       0       0       0
    ##  4 legit               0       0       0       0       0       0       0       0
    ##  5 legit               0       0       0       0       0       0       0       0
    ##  6 legit               0       0       0       0       0       0       0       0
    ##  7 legit               0       0       0       0       0       0       0       0
    ##  8 legit               0       0       0       0       0       0       0       0
    ##  9 legit               0       0       0       0       0       0       0       0
    ## 10 legit               0       0       0       0       0       0       0       0
    ## # … with 990 more rows, 81 more variables: billing_postal_X9311 <int>,
    ## #   billing_postal_X9879 <int>, billing_postal_X10024 <int>,
    ## #   billing_postal_X11455 <int>, billing_postal_X11554 <int>,
    ## #   billing_postal_X12133 <int>, billing_postal_X12742 <int>,
    ## #   billing_postal_X13368 <int>, billing_postal_X13515 <int>,
    ## #   billing_postal_X14721 <int>, billing_postal_X14908 <int>,
    ## #   billing_postal_X15732 <int>, billing_postal_X17039 <int>, …
    ## # ℹ Use `print(n = ...)` to see more rows, and `colnames()` to see all variable names
…
``` r
tidy(rf_workflow3) %>%
  mutate_if(is.numeric,round,3) %>%
  filter(p.value < 0.05)
```

    ## # A tibble: 32 × 5
    ##    term                estimate std.error statistic p.value
    ##    <chr>                  <dbl>     <dbl>     <dbl>   <dbl>
    ##  1 account_age_days      -0.001     0        -42.0    0    
    ##  2 transaction_amt        0         0         -4.00   0    
    ##  3 transaction_adj_amt    0.175     0.003     61.0    0    
    ##  4 signature_image_C      1.54      0.7        2.2    0.028
    ##  5 signature_image_D      1.34      0.675      1.99   0.047
    ##  6 signature_image_J     -1.61      0.752     -2.14   0.033
    ##  7 signature_image_O      2.04      1.00       2.04   0.042
    ##  8 signature_image_R      1.87      0.815      2.30   0.022
    ##  9 signature_image_W      1.47      0.68       2.17   0.03 
    ## 10 signature_image_X      1.48      0.687      2.16   0.031
    ## # … with 22 more rows
    ## # ℹ Use `print(n = ...)` to see more rows
…
