…
## Check the recipe results m
bake(boston_recipe %>% prep(),train %>% sample_n(1000))
```

    ## # A tibble: 1,000 × 37
    ##    land_sf livin…¹   age num_f…² r_tot…³ media…⁴ r_ful…⁵ r_hal…⁶ av_to…⁷ own_o…⁸
    ##      <dbl>   <dbl> <dbl>   <dbl>   <dbl>   <dbl>   <dbl>   <dbl>   <dbl>   <int>
    ##  1    5500    1116    55       1       6   75446       1       0  360200       1
    ##  2    6500    3264   112       2       9   75446       1       1  706800       0
    ##  3    4371    1142    77       1       7   58890       2       0  311400       0
    ##  4    5500    1244    72       1       6   48841       1       1  339400       0
    ##  5    6349    1500     7       2       8   75446       1       1  522100       0
    ##  6    5029     972    63       1       5   75730       1       0  473000       0
    ##  7    5998    1493    21       2       7   66735       1       1  404700       0
    ##  8    6596    1470    52       2       7   75446       1       1  419200       0
    ##  9    5378    1800     9       2       6   75446       2       1  543700       0
    ## 10    4072     936   102       1       5   75446       1       1  374400       0
    ## # … with 990 more rows, 27 more variables: own_occ_Y <int>,
    ## #   city_state_Cambridge..MA <int>, city_state_Dorchester.Center..MA <int>,
    ## #   city_state_Hyde.Park..MA <int>, city_state_Jamaica.Plain..MA <int>,
    ## #   city_state_Roslindale..MA <int>, r_ovrall_cnd_A <int>,
    ## #   r_ovrall_cnd_G <int>, r_int_cnd_A <int>, r_int_cnd_G <int>,
    ## #   r_ext_cnd_A <int>, r_ext_cnd_G <int>, r_kitch_style_M <int>,
    ## #   r_kitch_style_N <int>, r_kitch_style_S <int>, r_bth_style_M <int>, …
    ## # ℹ Use `print(n = ...)` to see more rows, and `colnames()` to see all variable names
…
``` r
lm_model <- linear_reg(mixture = 1, penalty = 0.01) %>%
  set_engine("glm") %>%  #other engine such as glm, lm dont have mixture and penalty, lm is the basic one
  set_mode("regression") 

lm_wflow <-workflow() %>%
  add_recipe(boston_recipe) %>%
  add_model(lm_model) %>%
  fit(train)

tidy(lm_wflow) %>%
  mutate_if(is.numeric,round,4)
```

    ## # A tibble: 37 × 5
    ##    term             estimate std.error statistic p.value
    ##    <chr>               <dbl>     <dbl>     <dbl>   <dbl>
    ##  1 (Intercept)   -1033262.   30982.      -33.4     0    
    ##  2 land_sf              8.27     0.273    30.3     0    
    ##  3 living_area        102.       2.27     45.0     0    
    ##  4 age                 -6.19    22.5      -0.275   0.783
    ##  5 num_floors       -3130.    3226.       -0.970   0.332
    ##  6 r_total_rms       2827.     687.        4.12    0    
    ##  7 median_income       18.5      0.344    53.7     0    
    ##  8 r_full_bth       18760.    1628.       11.5     0    
    ##  9 r_half_bth       20543.    1502.       13.7     0    
    ## 10 own_occ_N       -10422.    2304.       -4.52    0    
    ## # … with 27 more rows
    ## # ℹ Use `print(n = ...)` to see more rows
…
